-----BEGIN PGP SIGNATURE-----

iQIcBAABCgAGBQJizVaEAAoJEOU9mJqeLUe/cEwP/1IR+22nQuWduvBxO76XqBeV
Tn3WAa9MZ4pYCi8vlnHgQHLukbhR8w3eRrkxfgVQa/e1NANAMRgclcR5PHP5aUYs
/44L85pXwPp8KsR0zFGCDdqP9LxoV4PDl4FgD9ujZQCtcM6aivYFmkN2PumlmSsp
LN1Z8502j7woIG/YXRFtdfSdEm+QJ4BI05x/2LLLZBpEZd9hkXuP9xUqoLx1iBrI
Me/ppq2qIDHAVcxBZDlbQE44C6XKw+JOxekJmbGyrFo+I+LXzy29dkDNgK5NAruD
FA8jPWM6eTS8iMN1ybBuDZuPo0YyS4+F4BWgmjFpSCMDFedH6fvT5sYoYvf2cyhA
n3LSShylUL7ChOGjoqyWuALR/k/qzBHXDFAl+D3d2CRsg9qbVgDDvGmcQtKj5EAO
Ecoa7ufhxU3L6PvgaDL86R+NJAEOMzqs2P97fXgfJWPGfdWVEgANHfPXU45DaS+U
1/nRrIKI5UpGzDWjHuWLVRMnlDYGr8KtkbmmTEDKmSRjNkCOud33uoSiNravoGFL
UVOWiagCi9xTj9YLGU7/ZxSQrVZSxQiDNP6vxlHvQrwp91AEgGjwtzAoRMZAmBVS
VWR5pxG9CyFDgySczHl8pceNqIpooNwv39BNOBm6H8ZxWy7P5eE1gss8CHBvD7nz
yhywoaik0hG6enpgcBVr
=1vgt
-----END PGP SIGNATURE-----
